<?xml version="1.0" ?>
<kml xmlns="http://www.opengis.net/kml/2.2">
 <Document>
  <Style id="kmlLineStyle">
   <LineStyle>
    <color>
     7f0000ff
    </color>
    <width>
     4
    </width>
   </LineStyle>
  </Style>
  <Placemark>
   <name>
<![CDATA[Agoura 1 mile]]>   </name>
   <styleUrl>
    #kmlLineStyle
   </styleUrl>
   <LineString>
    <altitudeMode>
     clampToGround
    </altitudeMode>
    <tessellate>
     1
    </tessellate>
    <coordinates>
     -118.75418,34.15045,0 -118.75422,34.15129,0 -118.7543,34.15167,0 -118.75427,34.15218,0 -118.75427,34.15218,0 -118.75427,34.15221,0 -118.75568,34.15236,0 -118.75568,34.15236,0 -118.75588,34.15162,0 -118.75589,34.1515,0 -118.75572,34.15102,0 -118.75573,34.15097,0 -118.75573,34.15097,0 -118.75579,34.15089,0 -118.75625,34.15066,0 -118.75724,34.15026,0 -118.75732,34.15028,0 -118.75732,34.15028,0 -118.75749,34.15033,0 -118.75776,34.15063,0 -118.75788,34.15087,0 -118.75784,34.15103,0 -118.75769,34.15129,0 -118.75769,34.15129,0 -118.75701,34.15268,0 -118.75701,34.15268,0 -118.75637,34.15249,0 -118.75657,34.15185,0 -118.75662,34.15151,0 -118.75659,34.15128,0 -118.75641,34.1509,0 -118.75628,34.1507,0 -118.75628,34.1507,0 -118.75625,34.15066,0 -118.75585,34.15085,0 -118.75574,34.15094,0 -118.75572,34.15102,0 -118.7558,34.15126,0 -118.75589,34.1515,0 -118.75589,34.15159,0 -118.75589,34.15159,0 -118.75585,34.15177,0 -118.7554,34.15169,0 -118.75512,34.15167,0 -118.75452,34.15166,0 -118.7543,34.15167,0 -118.75429,34.15163,0 -118.75429,34.15163,0 -118.75422,34.15129,0 -118.7542,34.15094,0 
    </coordinates>
   </LineString>
  </Placemark>
  <Style id="Mile_1">
   <IconStyle>
    <Icon>
     <href>
<![CDATA[http://api.mapmyfitness.com/vx/map_marker_image/0/?format=png&txt=1]]>     </href>
    </Icon>
   </IconStyle>
  </Style>
  <Placemark>
   <styleUrl>
    #Mile_1
   </styleUrl>
   <Point>
    <coordinates>
     -118.7542,34.15094,0
    </coordinates>
   </Point>
   <name>
    Mile 1
   </name>
  </Placemark>
  <Style id="start_marker">
   <IconStyle>
    <Icon>
     <href>
<![CDATA[http://static.mapmyfitness.com/d/mapping_api/stable/img/markers/start.png]]>     </href>
    </Icon>
   </IconStyle>
  </Style>
  <Placemark>
   <styleUrl>
    #start_marker
   </styleUrl>
   <Point>
    <coordinates>
     -118.75418,34.15045,0
    </coordinates>
   </Point>
   <name>
    Agoura 1 mile
   </name>
  </Placemark>
  <Style id="finish_marker">
   <IconStyle>
    <Icon>
     <href>
<![CDATA[http://static.mapmyfitness.com/d/mapping_api/stable/img/markers/stop.png]]>     </href>
    </Icon>
   </IconStyle>
  </Style>
  <Placemark>
   <styleUrl>
    #finish_marker
   </styleUrl>
   <Point>
    <coordinates>
     -118.7542,34.15094,0
    </coordinates>
   </Point>
   <name>
    Agoura 1 mile
   </name>
  </Placemark>
 </Document>
</kml>
