<?xml version="1.0" ?>
<kml xmlns="http://www.opengis.net/kml/2.2">
 <Document>
  <Style id="kmlLineStyle">
   <LineStyle>
    <color>
     7f0000ff
    </color>
    <width>
     4
    </width>
   </LineStyle>
  </Style>
  <Placemark>
   <name>
<![CDATA[Deena Kastor 5K]]>   </name>
   <styleUrl>
    #kmlLineStyle
   </styleUrl>
   <LineString>
    <altitudeMode>
     clampToGround
    </altitudeMode>
    <tessellate>
     1
    </tessellate>
    <coordinates>
     -118.75148,34.15623,0 -118.75148,34.15668,0 -118.75156,34.15711,0 -118.75182,34.15755,0 -118.75242,34.15823,0 -118.75287,34.15886,0 -118.75327,34.15936,0 -118.75352,34.15959,0 -118.75352,34.15959,0 -118.75429,34.1591,0 -118.75492,34.15884,0 -118.75536,34.15872,0 -118.7557,34.15866,0 -118.7557,34.15866,0 -118.7559,34.15947,0 -118.75651,34.16223,0 -118.75651,34.16223,0 -118.75565,34.16237,0 -118.75583,34.16312,0 -118.75608,34.16424,0 -118.75613,34.1646,0 -118.75614,34.16536,0 -118.75611,34.1669,0 -118.75608,34.16767,0 -118.75559,34.16768,0 -118.75559,34.16768,0 -118.75558,34.16847,0 -118.75547,34.17006,0 -118.75545,34.17085,0 -118.75533,34.17086,0 -118.75496,34.1709,0 -118.75464,34.17099,0 -118.75463,34.17099,0 -118.75463,34.17099,0 -118.75486,34.17092,0 -118.75521,34.17086,0 -118.75632,34.17084,0 -118.7584,34.17087,0 -118.75842,34.17087,0 -118.75854,34.1689,0 -118.75854,34.16851,0 -118.75851,34.16823,0 -118.75847,34.16793,0 -118.75837,34.16749,0 -118.75795,34.16564,0 -118.75645,34.15899,0 -118.75608,34.1573,0 -118.75606,34.15709,0 -118.75606,34.15684,0 -118.75607,34.1565,0 -118.75613,34.15614,0 -118.75622,34.15581,0 -118.75641,34.1553,0 -118.75702,34.15396,0 -118.75702,34.15396,0 -118.75612,34.15368,0 -118.75532,34.15351,0 -118.75467,34.15342,0 -118.75411,34.15342,0 -118.75412,34.15338,0 -118.75412,34.15338,0 -118.75427,34.15221,0 -118.7543,34.15167,0 -118.75422,34.15129,0 -118.75419,34.15054,0 
    </coordinates>
   </LineString>
  </Placemark>
  <Style id="Mile_1">
   <IconStyle>
    <Icon>
     <href>
<![CDATA[http://api.mapmyfitness.com/vx/map_marker_image/0/?format=png&txt=1]]>     </href>
    </Icon>
   </IconStyle>
  </Style>
  <Placemark>
   <styleUrl>
    #Mile_1
   </styleUrl>
   <Point>
    <coordinates>
     -118.75611,34.1669,0
    </coordinates>
   </Point>
   <name>
    Mile 1
   </name>
  </Placemark>
  <Style id="Mile_2">
   <IconStyle>
    <Icon>
     <href>
<![CDATA[http://api.mapmyfitness.com/vx/map_marker_image/0/?format=png&txt=2]]>     </href>
    </Icon>
   </IconStyle>
  </Style>
  <Placemark>
   <styleUrl>
    #Mile_2
   </styleUrl>
   <Point>
    <coordinates>
     -118.75645,34.15899,0
    </coordinates>
   </Point>
   <name>
    Mile 2
   </name>
  </Placemark>
  <Style id="start_marker">
   <IconStyle>
    <Icon>
     <href>
<![CDATA[http://static.mapmyfitness.com/d/mapping_api/stable/img/markers/start.png]]>     </href>
    </Icon>
   </IconStyle>
  </Style>
  <Placemark>
   <styleUrl>
    #start_marker
   </styleUrl>
   <Point>
    <coordinates>
     -118.75148,34.15623,0
    </coordinates>
   </Point>
   <name>
    Deena Kastor 5K
   </name>
  </Placemark>
  <Style id="finish_marker">
   <IconStyle>
    <Icon>
     <href>
<![CDATA[http://static.mapmyfitness.com/d/mapping_api/stable/img/markers/stop.png]]>     </href>
    </Icon>
   </IconStyle>
  </Style>
  <Placemark>
   <styleUrl>
    #finish_marker
   </styleUrl>
   <Point>
    <coordinates>
     -118.75419,34.15054,0
    </coordinates>
   </Point>
   <name>
    Deena Kastor 5K
   </name>
  </Placemark>
 </Document>
</kml>
